{
  "name": "template-module",
  "version": "0.1.0",
  "author": "Mike Travis",
  "summary": null,
  "license": "Apache 2.0",
  "source": "",
  "project_page": null,
  "issues_url": null,
  "dependencies": [
    {
      "name": "puppetlabs-stdlib",
      "version_range": ">= 1.0.0"
    }
  ]
}

